<?xml version="1.0" encoding="UTF-8" standalone="no"?>
<svg
   xmlns:dc="http://purl.org/dc/elements/1.1/"
   xmlns:cc="http://creativecommons.org/ns#"
   xmlns:rdf="http://www.w3.org/1999/02/22-rdf-syntax-ns#"
   xmlns:svg="http://www.w3.org/2000/svg"
   xmlns="http://www.w3.org/2000/svg"
   id="svg1679"
   version="1.1"
   viewBox="0 0 22.789383 22.789391"
   height="22.789391mm"
   width="22.789383mm">
  <defs
     id="defs1673" />
  <metadata
     id="metadata1676">
    <rdf:RDF>
      <cc:Work
         rdf:about="">
        <dc:format>image/svg+xml</dc:format>
        <dc:type
           rdf:resource="http://purl.org/dc/dcmitype/StillImage" />
        <dc:title></dc:title>
      </cc:Work>
    </rdf:RDF>
  </metadata>
  <g
     transform="translate(-79.319598,-88.30174)"
     id="layer1">
    <path
       id="path3767-3-2"
       style="fill:#5cb85f;fill-opacity:0.94117647;fill-rule:evenodd;stroke-width:0.26458332"
       d="m 79.325838,88.30796 h 22.776972 v 22.77697 H 79.325838 Z" />
    <path
       id="path3769-6-9"
       style="fill:#1a1d1a;fill-rule:evenodd;stroke-width:0.26458332"
       d="m 100.71113,93.39378 v 0.12483 c -0.2659,0 -0.66744,-0.0243 -0.910432,-0.088 -0.0735,-0.0193 -0.1565,-0.0118 -0.23775,-0.0118 0.0941,-0.12838 0.31628,-0.21244 0.42796,-0.29589 0.175472,-0.13107 0.228312,-0.13266 0.344362,-0.20476 0.0739,-0.0459 0.0357,-0.0492 0.12628,-0.0734 0.0316,0.13568 0.19122,0.26845 0.32449,0.29953 -0.0206,0.0886 -0.0749,0.1746 -0.0749,0.24959 z m -19.419622,-1.77224 0.15206,0.14751 c 0.28461,0.27077 0.37988,0.10943 0.47418,0.29959 0.13002,0.26204 0.35449,0.88775 0.40082,1.19665 l 0.29588,1.35155 c -0.13496,-0.0314 -0.12819,-0.0795 -0.23161,-0.14274 l -1.51948,-0.85183 c -0.10914,-0.0438 -0.0731,-0.0376 -0.15724,-0.0923 -0.19016,-0.12359 -0.14264,-0.0358 -0.19981,-0.29943 -0.0296,-0.13642 -0.10327,-0.28898 -0.11341,-0.41084 0.23485,0.12425 0.5388,0.1828 0.71417,-0.0846 0.10472,-0.15973 0.1112,-0.39775 0.14139,-0.53255 0.0154,-0.0687 0.0507,-0.10017 0.0632,-0.16343 0.0102,-0.052 -0.0201,-0.30539 -0.0201,-0.41752 z m 1.17319,-0.29953 0.0303,-0.54877 c 0.23852,0.11668 0.4809,-0.0689 0.56869,-0.20008 0.17595,0.0844 0.0133,-0.0375 0.2354,0.13904 l 0.54528,0.40325 c 0.27683,0.12777 0.58243,0.52477 0.84323,0.70437 0.091,0.0626 0.0311,0.009 0.10644,0.0932 l 0.59126,0.55692 c 0.0814,0.10848 0.1134,0.10387 0.20619,0.19322 0.28647,0.27565 0.44077,0.37 0.4821,0.66609 l 0.0603,0.33909 c 0,0.30514 0.0279,0.48511 -0.0387,0.73509 -0.0644,0.24199 -0.008,0.30419 -0.1112,0.61265 -0.038,0.11321 -0.0449,0.26934 -0.0961,0.37819 -0.19569,0.41608 -0.1296,0.31231 -0.75055,0.19415 -0.23413,-0.0446 -0.12128,-0.0289 -0.24532,-0.0791 -0.0734,-0.0297 -0.20997,-0.0457 -0.28374,-0.0657 l -0.52194,-0.15203 c -0.14057,-0.0482 -0.34269,-0.17198 -0.49848,-0.17547 l -0.17594,-1.34665 -0.19847,-0.72512 c -0.0553,-0.27903 -0.18555,-0.40857 -0.22259,-0.5262 l -0.32589,-0.77245 c -0.0165,-0.0322 -0.20442,-0.36153 -0.20034,-0.42365 z m 13.12947,-0.0499 z m -10.45864,-0.89858 z m 13.8783,-0.0749 c 0,0.37258 0.27713,0.39936 0.49919,0.39936 0.10107,0 0.15243,-0.0705 0.34946,-0.0749 -0.0485,0.20831 -0.0998,0.0797 -0.0998,0.57412 l -0.7516,0.42159 c -0.19598,0.0669 -0.13536,0.11533 -0.4536,0.2703 l -0.99729,0.67506 c -0.10129,0.0973 -0.0719,0.0536 -0.14645,0.10313 -0.0488,0.0325 -0.0719,0.0663 -0.11552,0.10914 -0.0479,0.0469 -0.0841,0.0706 -0.13856,0.11107 -0.0946,0.0704 -0.18333,0.13084 -0.27117,0.20302 -0.27419,0.22518 -0.46157,0.30607 -0.57412,0.39936 -0.054,0.0447 -0.0638,0.0649 -0.12229,0.10242 -0.33793,0.2168 -0.82561,0.66844 -0.94737,0.74999 0,-0.55489 -0.0139,-0.30771 0.057,-0.84156 0.029,-0.21823 0.024,-0.33557 0.0993,-0.44995 0.0426,-0.0648 0.013,-0.005 0.043,-0.0818 l 0.32128,-0.57724 c 0.0945,-0.12565 0.0901,-0.18137 0.1928,-0.28149 l 0.10337,-0.0964 c 0.13272,-0.15436 0.0317,-0.092 0.23164,-0.24257 l 0.66395,-0.60907 c 0.004,-0.003 0.009,-0.008 0.013,-0.012 0.004,-0.003 0.009,-0.009 0.0125,-0.0124 l 1.08281,-1.2386 c 0.0681,0.25514 0.59946,0.32996 0.7099,0.31253 0.0968,-0.0153 0.19481,-0.0548 0.26358,-0.0879 -0.006,0.0781 -0.0249,0.0887 -0.0249,0.17476 z m -7.01405,3.04522 c -0.036,-0.13467 -0.10692,-0.0784 -0.19365,-0.30557 -0.0292,-0.0764 -0.0287,-0.12605 -0.056,-0.19362 -0.0664,-0.1642 -0.0809,-0.24492 -0.15512,-0.36899 -0.11192,-0.18703 -0.0705,-0.42936 -0.16127,-0.63751 -0.0487,-0.11155 -0.0414,-0.35206 -0.0543,-0.46988 -0.009,-0.081 0.002,-0.16221 -0.007,-0.24286 -0.007,-0.0684 -0.0365,-0.16232 -0.0437,-0.23085 l -0.028,-1.02028 c 0.13097,0.0877 -0.003,0.0504 0.19405,0.18037 0.0706,0.0466 0.18539,0.17197 0.42566,0.0906 0.0581,-0.0197 0.0887,-0.0423 0.14499,-0.0804 0.146,-0.0986 0.25125,-0.23466 0.33356,-0.39026 0.0865,0.0634 0.1388,0.24964 0.34946,0.24964 0.4168,0 0.50202,-0.43503 0.649,-0.4743 0.0319,0.38373 0.25167,0.0913 0.0744,0.52372 -0.0377,0.0919 -0.0427,0.16357 -0.0709,0.25352 -0.0729,0.23133 -0.0737,0.12973 -0.15507,0.49395 l -0.43358,1.16393 c -0.0774,0.12618 -0.0396,0.12576 -0.0898,0.23474 -0.0297,0.0645 -0.0751,0.11793 -0.11348,0.21095 l -0.42325,0.87472 c -0.0621,0.10707 -0.0399,0.13514 -0.18613,0.1384 z m 3.59439,-2.07174 c 0,-0.41487 0.0293,-0.26154 0.0686,-0.50549 0.041,-0.25429 0.031,-0.33107 0.11822,-0.63061 0.0111,-0.0381 0.0204,-0.0852 0.0296,-0.12022 l 0.15798,-0.74057 c 0.11602,0.031 0.018,0.0551 0.30051,0.0517 0.21905,-0.003 0.14063,-0.0411 0.27361,-0.0767 0,0.19476 0.004,0.21174 0.0886,0.33573 0.0663,0.0975 0.13639,0.16015 0.28585,0.16346 -0.0344,0.12877 -0.35991,0.46387 -0.44823,0.60013 -0.0521,0.0804 -0.0896,0.14528 -0.15655,0.21791 -0.0987,0.10721 -0.065,0.0353 -0.26286,0.26133 l -0.34539,0.35348 c -0.0764,0.0773 0.008,0.0584 -0.10991,0.0898 z m -7.18878,1.84708 c -0.0964,-0.0257 -0.12848,-0.08 -0.20095,-0.12353 -0.10967,-0.066 -0.0995,-0.0316 -0.18124,-0.14322 -0.12613,-0.1724 -0.1115,-0.093 -0.20238,-0.27194 -0.0829,-0.1632 -0.30136,-0.37476 -0.4313,-0.54216 -0.18497,-0.2382 -0.13055,-0.19918 -0.17272,-0.35142 -0.0396,-0.14287 -0.0852,-0.0803 -0.15378,-0.32051 -0.0433,-0.15161 -0.0524,-0.0875 -0.0908,-0.23368 l -0.0892,-0.23532 c -0.002,-0.005 -0.005,-0.0122 -0.007,-0.0176 l -0.0932,-0.20632 c -0.0572,-0.17259 -0.14039,-0.14647 -0.25117,-0.57258 -0.0298,-0.11462 -0.073,-0.14499 -0.0979,-0.25154 l 0.29245,0.15684 c 0.0971,0.027 0.21404,0.0239 0.30919,-0.005 0.11393,-0.034 0.0604,-0.0259 0.19452,-0.15488 l 0.15237,-0.17217 c 0.0566,0.24321 -0.0183,0.18796 0.17643,0.42265 l 0.0688,0.0809 c 0.24247,0.24654 0.56907,0.26321 0.75285,-0.12941 0.0156,-0.0334 0.029,-0.068 0.0469,-0.10284 0.0262,-0.0509 0.031,-0.0565 0.0572,-0.11758 0.0361,-0.0842 0.0709,-0.1225 0.0709,-0.25353 0.13534,0.0906 0.24122,0.10867 0.39944,0.0249 l -0.099,0.8995 c -0.0156,0.13407 -0.0338,0.10364 -0.0477,0.20201 l -0.0673,0.70636 c -0.0113,0.0798 -0.005,0.15391 -0.0213,0.22836 -0.0224,0.10448 -0.0278,0.0763 -0.0415,0.20815 l -0.19016,1.08291 c -0.0265,0.12417 -0.0325,0.0982 -0.0823,0.19222 z m -3.26986,-2.74566 c -0.0618,-0.0414 -0.0722,-0.07 -0.13562,-0.11403 l -0.61042,-0.38799 c -0.122,-0.1039 -0.1229,-0.0688 -0.21034,-0.13914 -0.10465,-0.0841 -0.18802,-0.20262 -0.29168,-0.25744 l 0.1039,-0.27054 c 0.017,-0.0357 0.0302,-0.0714 0.0459,-0.10388 0.2413,0.0562 0.25802,0.14852 0.57415,0.0749 0.0183,0.0789 0.0805,0.22365 0.11708,0.30721 0.0843,0.19227 0.20013,0.33247 0.26963,0.57901 0.0488,0.1727 0.11346,0.20908 0.13745,0.31192 z M 102.10898,88.30174 H 79.319598 v 9.78474 c 0.15218,-0.0805 0.35525,-0.0433 0.52636,-0.14759 0.16729,-0.10194 0.22619,-0.20354 0.35414,-0.34483 0.0933,-0.10305 0.1006,-0.45135 0.0571,-0.59491 -7.9e-4,-0.003 -0.0236,-0.0504 -0.0239,-0.051 l -0.0713,-0.20331 c -0.0338,-0.0937 -0.0935,-0.13716 -0.1185,-0.2309 0.20806,0 0.39356,-0.0772 0.55366,-0.19516 0.12777,-0.0941 0.24503,-0.33086 0.24503,-0.50379 0.14346,0.0759 0.33634,0.12176 0.47356,0.20042 0.36218,0.20778 0.77353,0.38791 1.14474,0.57753 l 0.84283,0.5301 c 0.0991,0.0582 0.11475,0.0983 0.19558,0.15382 l 0.79537,0.60249 c 0.19214,0.16375 0.3761,0.28313 0.53803,0.48537 0.10165,0.127 0.22264,0.24937 0.30453,0.39442 0.14759,0.26154 0.31451,0.47937 0.42201,0.77607 0.0233,0.0641 0.0242,0.0682 0.0512,0.12351 l 0.2562,0.79216 c 0.0239,0.0905 0.063,0.1483 0.0684,0.28105 0.006,0.13919 0.0112,0.22209 0.0219,0.32953 0.0145,0.14505 -0.0421,0.16987 -0.0197,0.31674 0.0119,0.0782 0.0298,0.0701 0.0337,0.12784 0.002,0.0253 -0.0125,0.0867 -0.0116,0.14846 0.002,0.10808 0.0264,0.15708 0.0258,0.3003 -0.002,0.47636 0.0833,1.70027 0.0429,2.01594 l -0.058,0.29147 c -0.0214,0.0985 -0.005,0.1951 -0.0239,0.30054 -0.0198,0.10755 -0.046,0.19717 -0.057,0.29249 -0.01,0.0837 -0.001,0.0782 -0.0228,0.15196 -0.0533,0.18203 -0.0996,0.9884 -0.18439,1.38816 -0.0173,0.0816 -0.032,0.22378 -0.0422,0.30721 l -0.0897,0.58425 c -0.0756,0.48215 -0.29564,1.51246 -0.43915,1.98205 l -0.11192,0.41227 c -0.009,0.0338 -0.0321,0.0869 -0.0483,0.12647 l -0.36351,1.03434 c -0.0239,0.0683 -0.0694,0.18491 -0.10022,0.24918 h 14.32758 c -0.0714,-0.1066 -0.51533,-0.55396 -0.66362,-0.75914 -0.0579,-0.0802 -0.081,-0.1351 -0.1382,-0.21127 -0.21092,-0.28073 -0.39901,-0.58367 -0.54607,-0.90168 l -0.29263,-0.58094 c -0.0295,-0.0616 -0.0392,-0.0622 -0.0738,-0.12589 l -0.3194,-0.75396 c -0.0495,-0.12382 -0.0746,-0.10472 -0.11078,-0.26363 -0.0247,-0.1085 -0.0511,-0.15838 -0.0913,-0.25815 -0.0394,-0.0981 -0.0577,-0.15272 -0.0961,-0.25337 -0.0392,-0.10295 -0.065,-0.14557 -0.0917,-0.25765 l -0.24382,-0.8545 c -0.0292,-0.0927 -0.0647,-0.14623 -0.092,-0.25749 -0.0696,-0.28374 -0.19016,-0.54729 -0.229,-0.84428 -0.008,-0.0606 -0.005,-0.0984 -0.0177,-0.15709 -0.0121,-0.0579 -0.0248,-0.0809 -0.0377,-0.13697 -0.0717,-0.31187 -0.10954,-0.62614 -0.12676,-0.97158 -0.0132,-0.26511 -0.0493,-0.17224 -0.0493,-0.6745 0,-0.25731 -0.0267,-0.44151 -0.0246,-0.67434 0.003,-0.27536 -0.0785,-0.38473 -0.0756,-0.64831 0.003,-0.2598 -0.0506,-0.40667 -0.0497,-0.67424 5.3e-4,-0.12819 0.002,-0.21733 -0.0153,-0.33592 -0.0131,-0.0893 -0.009,-0.0687 0.001,-0.1533 0.0179,-0.1448 0.0124,-0.0475 -0.0181,-0.153 -0.0427,-0.14777 0.0302,-0.12523 -0.002,-0.2957 -0.0263,-0.13981 -0.0428,-0.13089 -0.041,-0.31009 10e-4,-0.1532 -0.0613,-0.56711 -0.0338,-0.65591 l 0.12552,-0.40065 c 0.0351,-0.15034 0.0589,-0.12854 0.11226,-0.26215 l 0.11901,-0.23048 c 0.0254,-0.0451 0.0353,-0.0859 0.058,-0.14169 0.0497,-0.122 0.0721,-0.10437 0.12213,-0.2273 l 0.35303,-0.72035 c 0.1151,-0.15312 0.18849,-0.35383 0.33102,-0.56759 l 0.45683,-0.6165 c 0.0991,-0.13521 0.24247,-0.25514 0.32967,-0.39418 0.0239,-0.0382 0.049,-0.0724 0.0834,-0.11634 0.0596,-0.0761 0.10957,-0.10996 0.17069,-0.1787 0.16629,-0.18698 0.15195,-0.21209 0.35404,-0.36988 0.0806,-0.063 0.13583,-0.10589 0.18901,-0.18537 0.2308,0.0538 0.4871,0.0591 0.7144,0.10924 0.15756,0.0348 0.0386,0.06 0.45212,0.12206 0.0642,0.01 0.13746,0.0336 0.22408,0.0505 0.13002,0.0255 0.36319,0.0427 0.531422,0.0427 -0.0109,0.13078 -0.136612,0.22299 -0.167862,0.35636 -0.0711,0.30367 -0.14075,0.5387 0.10158,0.78322 0.102132,0.10306 0.222642,0.13343 0.415712,0.13343 l -0.0879,0.3115 c -0.067,0.22341 -0.0195,0.37319 0.0791,0.54594 0.11131,0.1951 0.56682,0.39428 0.78256,0.2908 -0.0931,0.39918 -0.0281,0.42326 0.0831,0.61582 0.0343,0.0594 0.0454,0.11673 0.0894,0.1602 l 0.30136,0.19783 c 0.15401,0.0529 0.24141,0.0495 0.44971,0.0495 z" />
    <g
       id="Layer1001-7-3"
       transform="matrix(0.26458333,0,0,0.26458333,61.140128,68.298788)">
      <path
         id="path3773-5-1"
         style="fill:#5cb85f;fill-opacity:0.94117647;fill-rule:evenodd;stroke:#1b1918;stroke-width:0.5;stroke-linecap:butt;stroke-linejoin:miter;stroke-dasharray:none"
         d="m 101.13,105.9868 h 21.293 c 1.8884,0 3.433,1.5446 3.433,3.4334 v 29.014 c 0,1.8887 -1.5446,3.4333 -3.433,3.4333 H 101.13 c -1.8888,0 -3.4334,-1.5446 -3.4334,-3.4333 v -29.014 c 0,-1.8888 1.5446,-3.4334 3.4334,-3.4334 z" />
      <g
         id="Layer1002-3-9">
        <g
           id="Layer1003-5-4">
          <path
             id="path3775-6-7"
             style="fill:#5cb85f;fill-opacity:0.94117647;fill-rule:evenodd;stroke:#1b1918;stroke-width:0.5;stroke-linecap:butt;stroke-linejoin:miter;stroke-dasharray:none"
             d="m 111.7766,110.1909 a 8.6492,8.6492 0 0 1 8.6492,8.6492 8.6492,8.6492 0 1 1 -8.6492,-8.6492 z" />
          <path
             id="path3777-2-8"
             style="fill:#1b1918;fill-rule:evenodd"
             d="m 111.7765,109.6985 c 5.0488,0 9.1416,4.0927 9.1416,9.1416 0,5.0488 -4.0928,9.1416 -9.1416,9.1416 -5.0488,0 -9.1416,-4.0928 -9.1416,-9.1416 0,-5.0489 4.0928,-9.1416 9.1416,-9.1416 z m 0,0.831 c 4.5898,0 8.3106,3.7208 8.3106,8.3106 0,4.5897 -3.7208,8.3105 -8.3106,8.3105 -4.5897,0 -8.3105,-3.7208 -8.3105,-8.3105 0,-4.5898 3.7208,-8.3106 8.3105,-8.3106 z" />
        </g>
        <path
           id="path3780-9-4"
           style="fill:#1b1918;fill-rule:evenodd;stroke:#1b1918;stroke-width:0.5;stroke-linecap:butt;stroke-linejoin:miter;stroke-dasharray:none"
           d="m 111.7468,112.661 a 6.1284,6.1284 0 0 1 6.1285,6.1284 6.1284,6.1284 0 1 1 -6.1285,-6.1284 z" />
        <path
           id="path3782-1-5"
           style="fill:#5cb85f;fill-opacity:0.94117647;fill-rule:evenodd"
           d="m 113.9392,114.6093 a 2.1432,2.1432 0 0 1 2.1432,2.1432 2.1432,2.1432 0 1 1 -2.1432,-2.1432 z" />
      </g>
      <g
         id="Layer1004-2-0">
        <path
           id="path3785-7-3"
           style="fill:#1b1918;fill-rule:evenodd;stroke:#1b1918;stroke-width:0.5;stroke-linecap:butt;stroke-linejoin:miter;stroke-dasharray:none"
           d="m 111.7767,130.2523 a 4.258,4.258 0 0 1 4.258,4.258 4.258,4.258 0 1 1 -4.258,-4.258 z" />
        <path
           id="path3787-0-6"
           style="fill:#5cb85f;fill-opacity:0.94117647;fill-rule:evenodd"
           d="m 113.1063,131.7499 a 1.5365,1.5365 0 0 1 1.5365,1.5364 1.5365,1.5365 0 1 1 -1.5365,-1.5364 z" />
      </g>
    </g>
  </g>
</svg>
