<?xml version="1.0" encoding="UTF-8" standalone="no"?>
<svg
   xmlns:dc="http://purl.org/dc/elements/1.1/"
   xmlns:cc="http://creativecommons.org/ns#"
   xmlns:rdf="http://www.w3.org/1999/02/22-rdf-syntax-ns#"
   xmlns:svg="http://www.w3.org/2000/svg"
   xmlns="http://www.w3.org/2000/svg"
   id="svg946"
   version="1.1"
   viewBox="0 0 96.577682 22.789391"
   height="22.789391mm"
   width="96.577682mm">
  <defs
     id="defs940" />
  <metadata
     id="metadata943">
    <rdf:RDF>
      <cc:Work
         rdf:about="">
        <dc:format>image/svg+xml</dc:format>
        <dc:type
           rdf:resource="http://purl.org/dc/dcmitype/StillImage" />
        <dc:title></dc:title>
      </cc:Work>
    </rdf:RDF>
  </metadata>
  <g
     transform="translate(-56.788541,-37.652929)"
     id="layer1">
    <path
       id="path3767-3-2"
       style="fill:#5cb85f;fill-opacity:0.94117647;fill-rule:evenodd;stroke-width:0.26458332"
       d="m 56.794786,37.659149 h 22.776973 v 22.77697 H 56.794786 Z" />
    <path
       id="path3769-6-9"
       style="fill:#1a1d1a;fill-rule:evenodd;stroke-width:0.26458332"
       d="m 78.180077,42.744969 v 0.12483 c -0.265906,0 -0.667438,-0.0243 -0.910431,-0.088 -0.07353,-0.0193 -0.156501,-0.0119 -0.237755,-0.0119 0.09406,-0.12838 0.316283,-0.21244 0.427964,-0.29589 0.175471,-0.13107 0.228309,-0.13266 0.344355,-0.20476 0.07387,-0.0459 0.03567,-0.0492 0.126286,-0.0734 0.03162,0.13568 0.191214,0.26845 0.324485,0.29954 -0.02064,0.0885 -0.0749,0.17459 -0.0749,0.24958 z m -19.419622,-1.77223 0.152056,0.1475 c 0.284612,0.27077 0.379888,0.10943 0.474186,0.29959 0.130016,0.26204 0.354489,0.88775 0.400817,1.19666 l 0.295884,1.35154 c -0.134964,-0.03141 -0.128191,-0.07953 -0.231617,-0.14274 l -1.519475,-0.85183 c -0.109141,-0.0438 -0.07305,-0.0376 -0.157242,-0.0923 -0.190156,-0.12359 -0.142637,-0.0358 -0.199813,-0.29943 -0.02961,-0.13642 -0.103267,-0.28898 -0.113401,-0.41084 0.234844,0.12425 0.538798,0.1828 0.714164,-0.0846 0.104722,-0.15972 0.111204,-0.39774 0.141393,-0.53255 0.01545,-0.0687 0.05069,-0.10017 0.06316,-0.16343 0.01024,-0.052 -0.02011,-0.30538 -0.02011,-0.41751 z m 1.173189,-0.29954 0.03035,-0.54877 c 0.238521,0.11668 0.480906,-0.0689 0.568695,-0.20008 0.175948,0.0845 0.01333,-0.0375 0.2354,0.13904 l 0.54528,0.40325 c 0.276833,0.12777 0.582427,0.52477 0.843227,0.70437 0.09099,0.0626 0.03109,0.009 0.106441,0.0932 l 0.591265,0.55692 c 0.08144,0.10848 0.1134,0.10387 0.20619,0.19322 0.286464,0.27565 0.440769,0.37 0.482097,0.66609 l 0.06033,0.33909 c 0,0.30515 0.02789,0.48512 -0.03874,0.73509 -0.06445,0.24199 -0.0077,0.3042 -0.111204,0.61265 -0.03799,0.11321 -0.04487,0.26934 -0.09607,0.37819 -0.195686,0.41609 -0.129594,0.31232 -0.750544,0.19415 -0.23413,-0.0446 -0.121285,-0.0289 -0.245322,-0.0791 -0.07342,-0.0297 -0.209973,-0.0457 -0.283739,-0.0657 l -0.521944,-0.15203 c -0.140573,-0.0482 -0.342688,-0.17198 -0.498475,-0.17547 l -0.175948,-1.34669 -0.198464,-0.72511 c -0.0553,-0.27903 -0.185552,-0.40857 -0.222594,-0.52621 l -0.325887,-0.77245 c -0.01646,-0.0322 -0.204417,-0.36153 -0.200342,-0.42365 z m 13.129471,-0.0499 z M 62.60448,39.724719 Z m 13.878295,-0.0749 c 0,0.37258 0.277125,0.39936 0.499189,0.39936 0.101071,0 0.152427,-0.0705 0.349462,-0.0749 -0.04852,0.20831 -0.09983,0.0797 -0.09983,0.57412 l -0.751602,0.42159 c -0.195977,0.0669 -0.135361,0.11533 -0.453602,0.2703 l -0.997291,0.67506 c -0.101282,0.0973 -0.07186,0.0536 -0.146447,0.10313 -0.04884,0.0325 -0.07189,0.0663 -0.115517,0.10914 -0.04789,0.0469 -0.08414,0.0706 -0.138562,0.11107 -0.09459,0.0704 -0.18333,0.13084 -0.271172,0.20302 -0.274187,0.22519 -0.461565,0.30607 -0.574119,0.39936 -0.05403,0.0447 -0.06382,0.0648 -0.12229,0.10242 -0.337926,0.2168 -0.825606,0.66844 -0.947367,0.74999 0,-0.55489 -0.01387,-0.30771 0.05702,-0.84156 0.02902,-0.21823 0.024,-0.33557 0.09925,-0.44995 0.04257,-0.0648 0.01296,-0.005 0.04305,-0.0818 l 0.321274,-0.57724 c 0.09451,-0.12565 0.09014,-0.18137 0.192802,-0.28149 l 0.103372,-0.0964 c 0.132715,-0.15436 0.03165,-0.092 0.231643,-0.24257 l 0.663945,-0.60907 c 0.0038,-0.003 0.0092,-0.008 0.01297,-0.012 0.0037,-0.003 0.0088,-0.009 0.01249,-0.0124 l 1.082808,-1.2386 c 0.0681,0.25514 0.599466,0.32997 0.709903,0.31253 0.09676,-0.0154 0.194813,-0.0548 0.263578,-0.0879 -0.0065,0.0781 -0.02495,0.0887 -0.02495,0.17476 z m -7.014051,3.04522 c -0.03598,-0.13467 -0.106918,-0.0784 -0.193649,-0.30557 -0.02924,-0.0764 -0.02871,-0.12604 -0.05601,-0.19362 -0.06638,-0.1642 -0.08088,-0.24492 -0.155125,-0.36899 -0.111919,-0.18703 -0.07051,-0.42936 -0.161264,-0.63751 -0.04866,-0.11155 -0.04138,-0.35206 -0.05429,-0.46987 -0.0089,-0.081 0.0016,-0.16222 -0.0068,-0.24287 -0.0071,-0.0684 -0.03649,-0.16232 -0.04374,-0.23084 l -0.02802,-1.02029 c 0.130969,0.0877 -0.0026,0.0505 0.194045,0.18037 0.07059,0.0466 0.185394,0.17198 0.425662,0.0906 0.05808,-0.0197 0.08874,-0.0423 0.144992,-0.0804 0.145997,-0.0986 0.251248,-0.23466 0.33356,-0.39026 0.08649,0.0634 0.1388,0.24964 0.349461,0.24964 0.416799,0 0.502021,-0.43503 0.648997,-0.4743 0.03191,0.38373 0.251672,0.0913 0.07437,0.52372 -0.03768,0.0919 -0.04265,0.16357 -0.07093,0.25352 -0.07289,0.23133 -0.07371,0.12973 -0.155073,0.49396 l -0.433572,1.16392 c -0.07742,0.12618 -0.03961,0.12576 -0.08975,0.23474 -0.02971,0.0645 -0.07512,0.11793 -0.11348,0.21095 l -0.423254,0.87472 c -0.06207,0.10707 -0.03985,0.13515 -0.186134,0.1384 z m 3.594391,-2.07174 c 0,-0.41487 0.02929,-0.26154 0.06863,-0.50549 0.04096,-0.25429 0.03096,-0.33107 0.118215,-0.6306 0.01109,-0.0381 0.02035,-0.0852 0.02958,-0.12023 l 0.157983,-0.74057 c 0.116019,0.031 0.01797,0.0551 0.300513,0.0517 0.219049,-0.003 0.140626,-0.0411 0.273606,-0.0767 0,0.19476 0.0042,0.21175 0.08856,0.33573 0.06633,0.0975 0.136393,0.16015 0.285856,0.16346 -0.03437,0.12877 -0.359913,0.46387 -0.448231,0.60013 -0.05212,0.0804 -0.08964,0.14528 -0.156554,0.21791 -0.09872,0.10721 -0.06503,0.0353 -0.262863,0.26133 l -0.345387,0.35348 c -0.07636,0.0773 0.0075,0.0584 -0.109908,0.0898 z m -7.188782,1.84708 c -0.09641,-0.0257 -0.128482,-0.08 -0.200951,-0.12353 -0.10967,-0.066 -0.09954,-0.0316 -0.18124,-0.14322 -0.126126,-0.1724 -0.111495,-0.093 -0.202379,-0.27194 -0.08289,-0.16319 -0.301361,-0.37475 -0.431298,-0.54216 -0.18497,-0.2382 -0.130545,-0.19918 -0.17272,-0.35142 -0.03961,-0.14287 -0.0852,-0.0802 -0.153775,-0.32051 -0.04326,-0.15161 -0.05241,-0.0875 -0.09078,-0.23368 l -0.08917,-0.23532 c -0.0024,-0.005 -0.0049,-0.0122 -0.0074,-0.0176 l -0.09316,-0.20633 c -0.05718,-0.17258 -0.140388,-0.14647 -0.251169,-0.57258 -0.02979,-0.11462 -0.07305,-0.14499 -0.09787,-0.25154 l 0.292444,0.15684 c 0.0971,0.027 0.214048,0.0239 0.309192,-0.005 0.11393,-0.034 0.06038,-0.0259 0.194522,-0.15488 l 0.152374,-0.17217 c 0.05659,0.24321 -0.01834,0.18796 0.176424,0.42265 l 0.06885,0.0809 c 0.242464,0.24654 0.569066,0.26321 0.752845,-0.12941 0.01564,-0.0334 0.02903,-0.068 0.04688,-0.10284 0.02617,-0.0509 0.03101,-0.0565 0.0572,-0.11758 0.03614,-0.0842 0.07091,-0.1225 0.07091,-0.25353 0.135335,0.0906 0.241221,0.10867 0.399442,0.0249 l -0.09901,0.8995 c -0.01558,0.13407 -0.03379,0.10364 -0.04765,0.20201 l -0.06734,0.70636 c -0.01124,0.0798 -0.0053,0.15391 -0.02127,0.22836 -0.02236,0.10449 -0.02783,0.0762 -0.04146,0.20815 l -0.190157,1.08291 c -0.02649,0.12417 -0.03254,0.0982 -0.08231,0.19222 z m -3.269853,-2.74566 c -0.06186,-0.0414 -0.07218,-0.07 -0.135625,-0.11403 l -0.610421,-0.38799 c -0.121999,-0.1039 -0.122899,-0.0688 -0.210343,-0.13914 -0.104643,-0.0841 -0.188013,-0.20262 -0.291677,-0.25744 l 0.103902,-0.27054 c 0.01704,-0.0357 0.03024,-0.0714 0.04585,-0.10387 0.2413,0.0562 0.258021,0.14851 0.574146,0.0749 0.01834,0.0788 0.08046,0.22366 0.117078,0.30721 0.08427,0.19227 0.200131,0.33248 0.269637,0.57901 0.04876,0.1727 0.113453,0.20908 0.137451,0.31192 z m 16.973444,-2.07179 H 56.788541 v 9.78474 c 0.152189,-0.0805 0.355256,-0.0433 0.526363,-0.14758 0.167296,-0.10195 0.226192,-0.20355 0.354144,-0.34484 0.09335,-0.10305 0.100595,-0.45135 0.05707,-0.59491 -7.93e-4,-0.003 -0.02357,-0.0504 -0.02389,-0.051 l -0.07128,-0.20331 c -0.03379,-0.0937 -0.0935,-0.13716 -0.118507,-0.2309 0.208069,0 0.393568,-0.0772 0.553668,-0.19516 0.127767,-0.0941 0.24503,-0.33086 0.24503,-0.50379 0.143457,0.0759 0.336338,0.12176 0.473551,0.20042 0.362189,0.20778 0.773536,0.38791 1.144747,0.57753 l 0.84283,0.5301 c 0.09911,0.0582 0.11475,0.0983 0.19558,0.15383 l 0.795364,0.60248 c 0.19214,0.16375 0.376105,0.28313 0.53803,0.48538 0.101653,0.127 0.222647,0.24937 0.304535,0.39441 0.147585,0.26154 0.314511,0.47937 0.422011,0.77608 0.02328,0.0641 0.02416,0.0682 0.05117,0.1235 l 0.256196,0.79217 c 0.02395,0.0905 0.06302,0.14829 0.06845,0.28104 0.0057,0.13919 0.01122,0.22209 0.02193,0.32953 0.01445,0.14505 -0.0421,0.16987 -0.01974,0.31674 0.01185,0.0782 0.02982,0.0701 0.03371,0.12784 0.0016,0.0253 -0.01254,0.0867 -0.01161,0.14846 0.0016,0.10808 0.02643,0.15709 0.02582,0.3003 -0.0018,0.47636 0.08332,1.70027 0.04289,2.01594 l -0.05802,0.29147 c -0.02135,0.0985 -0.0045,0.1951 -0.02394,0.30054 -0.01982,0.10755 -0.04604,0.19717 -0.05696,0.2925 -0.0096,0.0837 -0.0011,0.0782 -0.02281,0.15195 -0.05326,0.18203 -0.09959,0.9884 -0.184388,1.38816 -0.01728,0.0816 -0.03202,0.22378 -0.0422,0.30721 l -0.08969,0.58425 c -0.07559,0.48215 -0.295646,1.51246 -0.439156,1.98205 l -0.111918,0.41227 c -0.0089,0.0338 -0.03207,0.0869 -0.04829,0.12647 l -0.363511,1.03434 c -0.02387,0.0683 -0.0694,0.18491 -0.100225,0.24918 h 14.327584 c -0.07141,-0.1066 -0.515329,-0.55396 -0.663627,-0.75914 -0.05794,-0.0802 -0.08096,-0.1351 -0.138192,-0.21127 -0.210926,-0.28072 -0.399018,-0.58367 -0.546074,-0.90167 l -0.292629,-0.58095 c -0.02948,-0.0616 -0.03921,-0.0622 -0.07382,-0.12589 l -0.319404,-0.75396 c -0.04953,-0.12382 -0.07464,-0.10472 -0.110781,-0.26363 -0.02466,-0.1085 -0.05114,-0.15838 -0.09128,-0.25815 -0.03945,-0.0981 -0.05773,-0.15272 -0.09612,-0.25337 -0.03921,-0.10294 -0.06496,-0.14557 -0.09173,-0.25765 l -0.243819,-0.8545 c -0.02918,-0.0927 -0.06469,-0.14623 -0.092,-0.25749 -0.06964,-0.28374 -0.190156,-0.54729 -0.228997,-0.84428 -0.008,-0.0606 -0.0054,-0.0984 -0.0177,-0.15709 -0.01209,-0.0579 -0.02482,-0.0809 -0.03768,-0.13697 -0.0717,-0.31187 -0.109537,-0.62614 -0.126761,-0.97158 -0.0132,-0.26511 -0.04934,-0.17224 -0.04934,-0.6745 0,-0.25731 -0.02672,-0.44151 -0.02455,-0.67434 0.0026,-0.27536 -0.07848,-0.38473 -0.07557,-0.64831 0.0029,-0.2598 -0.05061,-0.40667 -0.04966,-0.67424 5.29e-4,-0.12819 0.0021,-0.21733 -0.01527,-0.33591 -0.0131,-0.0893 -0.0091,-0.0687 0.0013,-0.1533 0.01794,-0.14481 0.01238,-0.0475 -0.0181,-0.15301 -0.04268,-0.14777 0.03019,-0.12523 -0.0019,-0.2957 -0.0263,-0.13981 -0.04276,-0.13089 -0.04104,-0.31009 0.0013,-0.1532 -0.06128,-0.56711 -0.03384,-0.6559 l 0.125518,-0.40066 c 0.03514,-0.15034 0.05892,-0.12854 0.112263,-0.26215 l 0.11901,-0.23048 c 0.0254,-0.0451 0.03529,-0.0859 0.058,-0.14169 0.04966,-0.12199 0.07207,-0.10437 0.122132,-0.2273 l 0.353031,-0.72035 c 0.115094,-0.15312 0.188489,-0.35383 0.33102,-0.56759 l 0.45683,-0.6165 c 0.09911,-0.13521 0.242464,-0.25514 0.329671,-0.39418 0.02387,-0.0382 0.049,-0.0724 0.08337,-0.11634 0.05961,-0.0761 0.109564,-0.10996 0.170683,-0.1787 0.16629,-0.18698 0.15195,-0.21209 0.354039,-0.36988 0.08065,-0.063 0.135837,-0.10589 0.189018,-0.18537 0.230796,0.0538 0.487098,0.0591 0.714401,0.10925 0.15756,0.0348 0.03863,0.06 0.45212,0.12205 0.06421,0.01 0.137451,0.0336 0.224076,0.0505 0.130016,0.0254 0.363193,0.0427 0.531416,0.0427 -0.0109,0.13078 -0.136605,0.22299 -0.167852,0.35637 -0.07112,0.30366 -0.140758,0.53869 0.101573,0.78321 0.10213,0.10306 0.222647,0.13343 0.415714,0.13343 l -0.08787,0.3115 c -0.06699,0.22341 -0.01945,0.37319 0.07914,0.54594 0.11131,0.1951 0.566816,0.39428 0.782558,0.2908 -0.09305,0.39918 -0.02813,0.42326 0.08308,0.61582 0.03432,0.0594 0.0454,0.11673 0.08938,0.16021 l 0.30136,0.19782 c 0.154014,0.053 0.241406,0.0495 0.449713,0.0495 z" />
    <g
       id="Layer1001-7-3"
       transform="matrix(0.26458333,0,0,0.26458333,38.609073,17.649979)">
      <path
         id="path3773-5-1"
         style="fill:#5cb85f;fill-opacity:0.94117647;fill-rule:evenodd;stroke:#1b1918;stroke-width:0.5;stroke-linecap:butt;stroke-linejoin:miter;stroke-dasharray:none"
         d="m 101.13,105.9868 h 21.293 c 1.8884,0 3.433,1.5446 3.433,3.4334 v 29.014 c 0,1.8887 -1.5446,3.4333 -3.433,3.4333 H 101.13 c -1.8888,0 -3.4334,-1.5446 -3.4334,-3.4333 v -29.014 c 0,-1.8888 1.5446,-3.4334 3.4334,-3.4334 z" />
      <g
         id="Layer1002-3-9">
        <g
           id="Layer1003-5-4">
          <path
             id="path3775-6-7"
             style="fill:#5cb85f;fill-opacity:0.94117647;fill-rule:evenodd;stroke:#1b1918;stroke-width:0.5;stroke-linecap:butt;stroke-linejoin:miter;stroke-dasharray:none"
             d="m 111.7766,110.1909 a 8.6492,8.6492 0 0 1 8.6492,8.6492 8.6492,8.6492 0 1 1 -8.6492,-8.6492 z" />
          <path
             id="path3777-2-8"
             style="fill:#1b1918;fill-rule:evenodd"
             d="m 111.7765,109.6985 c 5.0488,0 9.1416,4.0927 9.1416,9.1416 0,5.0488 -4.0928,9.1416 -9.1416,9.1416 -5.0488,0 -9.1416,-4.0928 -9.1416,-9.1416 0,-5.0489 4.0928,-9.1416 9.1416,-9.1416 z m 0,0.831 c 4.5898,0 8.3106,3.7208 8.3106,8.3106 0,4.5897 -3.7208,8.3105 -8.3106,8.3105 -4.5897,0 -8.3105,-3.7208 -8.3105,-8.3105 0,-4.5898 3.7208,-8.3106 8.3105,-8.3106 z" />
        </g>
        <path
           id="path3780-9-4"
           style="fill:#1b1918;fill-rule:evenodd;stroke:#1b1918;stroke-width:0.5;stroke-linecap:butt;stroke-linejoin:miter;stroke-dasharray:none"
           d="m 111.7468,112.661 a 6.1284,6.1284 0 0 1 6.1285,6.1284 6.1284,6.1284 0 1 1 -6.1285,-6.1284 z" />
        <path
           id="path3782-1-5"
           style="fill:#5cb85f;fill-opacity:0.94117647;fill-rule:evenodd"
           d="m 113.9392,114.6093 a 2.1432,2.1432 0 0 1 2.1432,2.1432 2.1432,2.1432 0 1 1 -2.1432,-2.1432 z" />
      </g>
      <g
         id="Layer1004-2-0">
        <path
           id="path3785-7-3"
           style="fill:#1b1918;fill-rule:evenodd;stroke:#1b1918;stroke-width:0.5;stroke-linecap:butt;stroke-linejoin:miter;stroke-dasharray:none"
           d="m 111.7767,130.2523 a 4.258,4.258 0 0 1 4.258,4.258 4.258,4.258 0 1 1 -4.258,-4.258 z" />
        <path
           id="path3787-0-6"
           style="fill:#5cb85f;fill-opacity:0.94117647;fill-rule:evenodd"
           d="m 113.1063,131.7499 a 1.5365,1.5365 0 0 1 1.5365,1.5364 1.5365,1.5365 0 1 1 -1.5365,-1.5364 z" />
      </g>
    </g>
    <path
       id="path3771-1"
       style="fill:#1b1918;fill-rule:evenodd;stroke-width:0.26458332"
       d="m 89.605129,47.691299 h 3.094937 v -3.00839 H 83.06881 v 3.00839 h 3.095016 v 12.44489 h 3.441303 z m 9.090158,6.62286 c 1.341813,1.34192 0.757502,4.30702 1.060503,5.82203 h 3.44128 c -0.45456,-1.77472 0.19478,-5.64891 -1.6233,-7.0557 0.99563,-0.606 1.32024,-1.90463 1.32024,-3.67935 0,-3.24652 -1.40679,-4.71823 -5.454092,-4.71823 h -3.441303 v 15.45328 h 3.441303 v -5.82203 z m -1.255369,-6.83932 c 1.666505,0 2.012871,0.64934 2.012871,2.3808 0,1.73146 -0.346366,2.16435 -2.012871,2.16435 z m 9.652952,-2.79193 -3.46297,15.45328 h 3.4413 l 0.38955,-2.35911 h 2.70547 l 0.38957,2.35911 h 3.44128 l -3.46298,-15.45328 z m 1.70979,4.86973 0.88739,5.43248 h -1.77472 z m 9.93426,5.62726 c 4.0473,0 5.45409,-1.88296 5.45409,-5.12947 0,-3.46292 -1.40679,-5.36752 -5.45409,-5.36752 h -3.4413 v 15.45328 h 3.4413 z m 0,-7.70506 c 1.6665,0 2.01287,0.8658 2.01287,2.59726 0,1.73146 -0.34637,2.38072 -2.01287,2.38072 z m 10.194,7.70506 c 4.0473,0 5.45409,-1.88296 5.45409,-5.12947 0,-3.46292 -1.40679,-5.36752 -5.45409,-5.36752 h -3.44131 v 15.45328 h 3.44131 z m 0,-7.70506 c 1.6665,0 2.01287,0.8658 2.01287,2.59726 0,1.73146 -0.34637,2.38072 -2.01287,2.38072 z m 10.194,0.21646 h 3.7443 v -3.00839 h -7.18558 v 15.45328 h 7.18558 v -3.0084 h -3.7443 v -3.37634 h 2.66213 v -3.0084 h -2.66213 z m 9.73952,6.62286 c 1.34181,1.34192 0.75748,4.30702 1.06048,5.82203 h 3.4413 c -0.45458,-1.77472 0.19479,-5.64891 -1.6233,-7.0557 0.99563,-0.606 1.32022,-1.90463 1.32022,-3.67935 0,-3.24652 -1.40676,-4.71823 -5.45407,-4.71823 h -3.4413 v 15.45328 h 3.4413 v -5.82203 z m -1.25537,-6.83932 c 1.66651,0 2.01285,0.64934 2.01285,2.3808 0,1.73146 -0.34634,2.16435 -2.01285,2.16435 z" />
  </g>
</svg>
